Hello R Markdown - A Hugo website
…
install.packages("opendatatoronto")
## Installing package into '/home/rstudio-user/R/x86_64-pc-linux-gnu-library/4.0'
## (as 'lib' is unspecified)
install.packages("plyr")
## Installing package into '/home/rstudio-user/R/x86_64-pc-linux-gnu-library/4.0'
## (as 'lib' is unspecified)
library(opendatatoronto)
library(plyr)
package <- show_package("86a256ce-cf39-4e78-b43a-4f24aafe9747")
package <- package %>% list_package_resources()
my_data <- package %>% get_resource()
my_data <- my_data[1]
my_data
## $Sheet1
## # A tibble: 2,238 x 22
##    Timestamp           `1. What age ra… Sex   `How would you … `What level of …
##    <dttm>              <chr>            <chr> <chr>            <chr>           
##  1 2013-04-10 12:10:39 35 to 49         Male  Good             Post graduate   
##  2 2013-04-10 12:30:55 18 to 34         Male  Excellent        University degr…
##  3 2013-04-10 12:33:49 50 to 64         Male  Good             University degr…
##  4 2013-04-10 12:52:55 50 to 64         Male  Good             4 years univers…
##  5 2013-04-10 13:24:47 18 to 34         Male  Very good        College or trad…
##  6 2013-04-10 13:26:47 35 to 49         Male  Very good        College or trad…
##  7 2013-04-10 13:27:46 18 to 34         Male  Good             College or trad…
##  8 2013-04-10 13:28:38 35 to 49         Male  Very good        Post graduate   
##  9 2013-04-10 13:31:53 35 to 49         Fema… Fairly good      Post graduate   
## 10 2013-04-10 13:33:46 18 to 34         Male  Good             College or trad…
## # … with 2,228 more rows, and 17 more variables: `What is your household
## #   income?` <chr>, `Which category best describes your employment?` <chr>,
## #   `What Toronto district is your primary address located in?` <chr>, `On
## #   average, what distance do you travel most days of the week?` <chr>, `On
## #   average, how long is your commute? (each way)` <chr>, `Which transportation
## #   option do you end up using most often?` <chr>, `Does your household have
## #   access to any of the following types of private motorized vehicles?` <chr>,
## #   `Do you support any of the following statements?` <chr>, `When you use
## #   Toronto's Multi-Use Trails do you mostly` <chr>, `Are you aware that the
…
